{ # floor
    center (0, -1, 0)
    sizes (200, 2, 200)
    color (0, 0.75,  0.90)
}
{
    center (35, 5, 0)
    sizes (50, 10, 150)
    color (0.90, 0.45, 0)
}
{
    center (0, 0, 15)
    sizes (10, 10, 1)
    color (1, 1, 1)
}
{
    center (-20, 25, -20)
    sizes (20, 50, 20)
    color (0, 0.35, 0.85)
}
{
    center (-20, 25, 20)
    sizes (20, 30, 20)
    color (0.4, 0.35, 1)
}
{
    center (-16, 35, -7)
    sizes (10, 40, 2)
    color (0.4, 0.35, 0)
}
